<svg width="47" height="46" viewBox="0 0 47 46" fill="none" xmlns="http://www.w3.org/2000/svg">
<mask id="mask0" mask-type="alpha" maskUnits="userSpaceOnUse" x="0" y="0" width="47" height="46">
<rect x="0.5" width="46" height="46" fill="white"/>
</mask>
<g mask="url(#mask0)">
<path fill-rule="evenodd" clip-rule="evenodd" d="M30.68 35.6399L26.12 37.9399C25.4039 36.748 24.1203 36.0135 22.73 35.9999H18.36C17.6885 36.0009 17.0254 35.8505 16.42 35.5599L15.97 35.3499C13.6909 34.2467 11.0242 34.2875 8.77996 35.4599V34.7099C8.78051 34.2998 8.45952 33.9612 8.04996 33.9399H4.17996C3.77906 33.9667 3.47278 34.3085 3.48996 34.7099V45.2199C3.46714 45.6252 3.77498 45.9732 4.17996 45.9999H8.04996C8.46342 45.9785 8.78589 45.6339 8.77996 45.2199V44.7899L9.93996 44.1299C10.3904 43.8686 10.9249 43.7933 11.43 43.9199L18.91 45.7999C19.3851 45.8864 19.867 45.9299 20.35 45.9299C21.6051 45.931 22.8436 45.6436 23.97 45.0899L24.12 44.9999L34.7 37.7399C35.0305 37.5193 35.1238 37.0749 34.91 36.7399C34.0153 35.3089 32.1585 34.826 30.68 35.6399ZM7.31996 44.5399H4.93996V35.3999H7.31996V44.5399ZM19.24 44.3899C20.6261 44.6318 22.0532 44.4324 23.32 43.8199L33.17 36.9999C32.6342 36.6183 31.9278 36.5756 31.35 36.8899L26.65 39.2799C26.6914 39.5177 26.7115 39.7586 26.71 39.9999C26.7266 40.2046 26.6575 40.4071 26.519 40.5588C26.3806 40.7105 26.1853 40.7978 25.98 40.7999H18.8C18.3968 40.7999 18.07 40.4731 18.07 40.0699C18.07 39.6668 18.3968 39.3399 18.8 39.3399H25.12C24.825 38.2537 23.8355 37.5024 22.71 37.5099H18.34C17.4473 37.5129 16.5655 37.3147 15.76 36.9299L15.31 36.7199C13.1964 35.6921 10.693 35.8832 8.75996 37.2199V43.1199L9.19996 42.8699C9.98159 42.4218 10.9072 42.2962 11.78 42.5199L19.24 44.3899Z" fill="#333333"/>
<path fill-rule="evenodd" clip-rule="evenodd" d="M44.8201 -5.89993e-05H39.1201C38.9303 -0.0110822 38.7443 0.0567179 38.6061 0.187332C38.4679 0.317946 38.3898 0.499796 38.3901 0.689941V1.14994L37.2301 1.80994C36.7783 2.06784 36.2439 2.13958 35.7401 2.00994L28.2501 0.139941C26.5309 -0.169049 24.7579 0.0797295 23.1901 0.849941L23.1001 0.899941L12.5001 8.15994C12.1696 8.38056 12.0762 8.82501 12.2901 9.15994C13.1707 10.5941 15.0162 11.0938 16.5001 10.2999L21.0501 7.99994C21.7758 9.17652 23.0577 9.89496 24.4401 9.89994H28.8101C29.4816 9.89937 30.1446 10.0497 30.7501 10.3399L31.2001 10.5499C32.288 11.0769 33.4813 11.3504 34.6901 11.3499C35.9784 11.3463 37.2471 11.0343 38.3901 10.4399V11.2299C38.3895 11.6401 38.7105 11.9786 39.1201 11.9999H44.8201C45.217 11.968 45.5175 11.6278 45.5001 11.2299V0.719941C45.5174 0.531222 45.4528 0.344155 45.3227 0.206377C45.1926 0.0685977 45.0095 -0.00659691 44.8201 -5.89993e-05ZM31.8201 9.19994L31.3901 8.99994C30.5839 8.61714 29.7025 8.41899 28.8101 8.41994H24.4401C23.3146 8.42751 22.3251 7.67616 22.0301 6.58994H28.3701C28.7733 6.58994 29.1001 6.26311 29.1001 5.85994C29.1001 5.45677 28.7733 5.12994 28.3701 5.12994H21.1901C20.7853 5.13541 20.46 5.46512 20.4601 5.86994C20.4586 6.11125 20.4787 6.3522 20.5201 6.58994L15.8301 8.99994C15.2523 9.3143 14.5458 9.2716 14.0101 8.88994L23.8601 2.12994C25.1269 1.51748 26.554 1.31811 27.9401 1.55994L35.4001 3.42994C36.2729 3.65364 37.1985 3.52807 37.9801 3.07994L38.4201 2.82994V8.72994C36.48 10.0783 33.9616 10.2696 31.8401 9.22994L31.8201 9.19994ZM39.8301 10.5099H44.0301V1.50994H39.8301V10.5099Z" fill="#333333"/>
<path fill-rule="evenodd" clip-rule="evenodd" d="M44.0799 7.82998C44.0799 8.98978 43.1397 9.92998 41.9799 9.92998C41.4229 9.92998 40.8888 9.70873 40.495 9.3149C40.1011 8.92108 39.8799 8.38693 39.8799 7.82998C39.8799 6.67018 40.8201 5.72998 41.9799 5.72998C43.1397 5.72998 44.0799 6.67018 44.0799 7.82998ZM42.5712 7.58506C42.4721 7.34591 42.2387 7.18998 41.9799 7.18998C41.6264 7.18998 41.3399 7.47652 41.3399 7.82998C41.3399 8.08884 41.4958 8.3222 41.735 8.42126C41.9741 8.52032 42.2494 8.46557 42.4324 8.28253C42.6155 8.09949 42.6702 7.82421 42.5712 7.58506Z" fill="#333333"/>
<path fill-rule="evenodd" clip-rule="evenodd" d="M11.19 22.9666C11.1973 16.1251 16.7484 10.5845 23.5899 10.59C30.4344 10.601 35.9755 16.1555 35.9699 23C35.9589 29.8415 30.4048 35.3792 23.5633 35.37C16.7218 35.3608 11.1826 29.8081 11.19 22.9666ZM13.4921 27.1612C15.1843 31.2438 19.1705 33.904 23.5899 33.9C29.6092 33.8945 34.4889 29.0192 34.4999 23C34.508 18.5805 31.8515 14.5919 27.7704 12.896C23.6893 11.2001 18.9883 12.1312 15.8619 15.2548C12.7354 18.3784 11.8 23.0785 13.4921 27.1612Z" fill="#333333"/>
<path d="M23.59 18.05C24.8548 18.05 25.88 19.0753 25.88 20.34C25.88 20.7432 26.2069 21.07 26.61 21.07C27.0132 21.07 27.34 20.7432 27.34 20.34C27.3376 18.5178 26.0256 16.961 24.23 16.65V15.65C24.23 15.2469 23.9032 14.92 23.5 14.92C23.0969 14.92 22.77 15.2469 22.77 15.65V16.65C20.9032 17.0666 19.649 18.8214 19.8594 20.7225C20.0698 22.6236 21.6773 24.0618 23.59 24.06C24.5163 24.06 25.3513 24.618 25.7057 25.4737C26.0602 26.3294 25.8642 27.3144 25.2093 27.9693C24.5544 28.6243 23.5694 28.8202 22.7137 28.4657C21.858 28.1113 21.3 27.2763 21.3 26.35C21.3 25.9469 20.9732 25.62 20.57 25.62C20.1669 25.62 19.84 25.9469 19.84 26.35C19.847 28.0974 21.0568 29.6097 22.76 30V31.2C22.76 31.6032 23.0869 31.93 23.49 31.93C23.8932 31.93 24.22 31.6032 24.22 31.2V30.07C26.125 29.7254 27.4546 27.9873 27.2887 26.0585C27.1227 24.1298 25.5159 22.6443 23.58 22.63C22.3153 22.6273 21.2923 21.5998 21.295 20.335C21.2978 19.0703 22.3253 18.0473 23.59 18.05Z" fill="#333333"/>
</g>
</svg>
