<svg width="46" height="46" viewBox="0 0 46 46" fill="none" xmlns="http://www.w3.org/2000/svg">
<mask id="mask0" mask-type="alpha" maskUnits="userSpaceOnUse" x="0" y="0" width="46" height="46">
<rect width="46" height="46" fill="white"/>
</mask>
<g mask="url(#mask0)">
<path fill-rule="evenodd" clip-rule="evenodd" d="M3.83 6.90002H39.1C41.213 6.90552 42.9245 8.61705 42.93 10.73V32.17C42.9245 34.283 41.213 35.9945 39.1 36H3.83C1.72865 35.9947 0.0218823 34.3013 0 32.2V10.73C0.0054954 8.61705 1.71703 6.90552 3.83 6.90002ZM39.1 34.5C40.3703 34.5 41.4 33.4703 41.4 32.2V10.73C41.4 9.45977 40.3703 8.43002 39.1 8.43002H3.83C2.55974 8.43002 1.53 9.45977 1.53 10.73V32.2C1.53 33.4703 2.55974 34.5 3.83 34.5H39.1Z" fill="#0B1C2B"/>
<path fill-rule="evenodd" clip-rule="evenodd" d="M5.3701 14.5699H11.5001C11.9215 14.5699 12.2646 14.9086 12.2701 15.3299V21.4699C12.2701 21.8952 11.9254 22.2399 11.5001 22.2399H5.3701C4.94484 22.2399 4.6001 21.8952 4.6001 21.4699V15.3399C4.6001 14.9147 4.94484 14.5699 5.3701 14.5699ZM6.1301 20.6999H10.7301V16.0999H6.1301V20.6999Z" fill="#0B1C2B"/>
<rect x="5.37012" y="17.63" width="2.3" height="1.53" fill="#0B1C2B"/>
<rect x="9.19995" y="17.63" width="2.3" height="1.53" fill="#0B1C2B"/>
<path fill-rule="evenodd" clip-rule="evenodd" d="M28.3599 29.1399C28.3599 27.4444 29.7343 26.0699 31.4299 26.0699C33.1254 26.0699 34.4999 27.4444 34.4999 29.1399C34.4999 30.8355 33.1254 32.2099 31.4299 32.2099C29.7343 32.2099 28.3599 30.8355 28.3599 29.1399ZM29.9401 29.1173C29.9274 29.9556 30.5917 30.648 31.4299 30.6699C31.8443 30.6808 32.2453 30.523 32.5413 30.2327C32.8372 29.9424 33.0027 29.5445 32.9999 29.1299C32.9941 28.2915 32.3146 27.614 31.4762 27.6105C30.6378 27.607 29.9528 28.279 29.9401 29.1173Z" fill="#0B1C2B"/>
<rect x="4.6001" y="27.6" width="2.3" height="1.53" fill="#0B1C2B"/>
<rect x="8.42993" y="27.6" width="2.3" height="1.53" fill="#0B1C2B"/>
<rect x="12.27" y="27.6" width="2.3" height="1.53" fill="#0B1C2B"/>
<rect x="16.1001" y="27.6" width="2.3" height="1.53" fill="#0B1C2B"/>
<rect x="19.9302" y="27.6" width="2.3" height="1.53" fill="#0B1C2B"/>
<rect x="4.6001" y="24.53" width="16.87" height="1.53" fill="#0B1C2B"/>
<rect x="23" y="24.53" width="3.07" height="1.53" fill="#0B1C2B"/>
<path d="M37.5502 27.0899C36.4227 25.8269 34.4856 25.715 33.2202 26.8399L34.2202 27.9899C34.5244 27.7176 34.9248 27.5781 35.3323 27.6025C35.7399 27.627 36.1207 27.8132 36.3902 28.1199C36.9534 28.7496 36.8997 29.7165 36.2702 30.2799C35.6958 30.776 34.8446 30.776 34.2702 30.2799L33.2702 31.4299C34.4989 32.3793 36.2429 32.2618 37.3331 31.1563C38.4234 30.0508 38.5166 28.3053 37.5502 27.0899Z" fill="#0B1C2B"/>
<rect x="23.77" y="27.6" width="2.3" height="1.53" fill="#0B1C2B"/>
<rect x="4.6001" y="10.73" width="15.33" height="1.53" fill="#0B1C2B"/>
<path d="M42.1701 10V11.5C43.4403 11.5 44.4701 12.5297 44.4701 13.8V35.27C44.4701 36.5403 43.4403 37.57 42.1701 37.57H6.90007C5.62981 37.57 4.60007 36.5403 4.60007 35.27H3.07007C3.07556 37.383 4.7871 39.0945 6.90007 39.1H42.1701C44.283 39.0945 45.9946 37.383 46.0001 35.27V13.8C45.9782 11.6988 44.2714 10.0054 42.1701 10Z" fill="#0B1C2B"/>
<rect x="31.4302" y="10.73" width="6.9" height="1.53" fill="#0B1C2B"/>
<rect x="34.5" y="13.8" width="3.83" height="1.53" fill="#0B1C2B"/>
</g>
</svg>
