<svg width="37" height="46" viewBox="0 0 37 46" fill="none" xmlns="http://www.w3.org/2000/svg">
<path fill-rule="evenodd" clip-rule="evenodd" d="M31.4344 18.746H10.0388C9.66653 18.746 9.36475 19.0478 9.36475 19.42C9.36475 19.7922 9.66662 20.094 10.0388 20.094H31.4344C31.8067 20.094 32.1084 19.7922 32.1084 19.42C32.1084 19.0478 31.8067 18.746 31.4344 18.746" fill="#141ED2"/>
<path fill-rule="evenodd" clip-rule="evenodd" d="M31.4344 23.2105H10.0388C9.66653 23.2105 9.36475 23.5123 9.36475 23.8845C9.36475 24.2568 9.66662 24.5585 10.0388 24.5585H31.4344C31.8067 24.5585 32.1084 24.2568 32.1084 23.8845C32.1084 23.5123 31.8067 23.2105 31.4344 23.2105" fill="#141ED2"/>
<path fill-rule="evenodd" clip-rule="evenodd" d="M31.4344 27.675H10.0388C9.66653 27.675 9.36475 27.9767 9.36475 28.349C9.36475 28.7213 9.66662 29.023 10.0388 29.023H31.4344C31.8067 29.023 32.1084 28.7213 32.1084 28.349C32.1084 27.9767 31.8067 27.675 31.4344 27.675" fill="#141ED2"/>
<path fill-rule="evenodd" clip-rule="evenodd" d="M31.4344 32.1395H20.7366C20.3643 32.1395 20.0626 32.4413 20.0626 32.8135C20.0626 33.1858 20.3644 33.4876 20.7366 33.4876H31.4344C31.8067 33.4876 32.1084 33.1858 32.1084 32.8135C32.1084 32.4413 31.8067 32.1395 31.4344 32.1395" fill="#141ED2"/>
<path fill-rule="evenodd" clip-rule="evenodd" d="M31.4344 36.604H20.7366C20.3643 36.604 20.0626 36.9058 20.0626 37.2781C20.0626 37.6504 20.3644 37.9521 20.7366 37.9521H31.4344C31.8067 37.9521 32.1084 37.6504 32.1084 37.2781C32.1084 36.9058 31.8067 36.604 31.4344 36.604" fill="#141ED2"/>
<path fill-rule="evenodd" clip-rule="evenodd" d="M34.485 41.3123H6.52957V3.26468C6.52957 3.24231 6.52832 3.22021 6.52787 3.19793H34.4849C34.9653 3.19793 35.356 3.58884 35.356 4.06923V35.7156C35.356 35.7162 35.3561 35.7168 35.3561 35.7173V40.4409C35.3561 40.9213 34.9654 41.3123 34.485 41.3123V41.3123ZM30.446 43.7806C30.446 44.2609 30.0551 44.6519 29.5748 44.6519H3.26483C2.208 44.6519 1.34829 43.7921 1.34829 42.7353C1.34829 40.5391 4.46703 40.0827 5.0998 42.181C5.1856 42.4657 5.44777 42.6604 5.74515 42.6604H30.446V43.7806ZM1.3482 3.26468C1.3482 2.20785 2.208 1.34805 3.26474 1.34805C4.32166 1.34805 5.18138 2.20785 5.18138 3.26468V40.0987C4.02123 39.2552 2.48175 39.269 1.3482 40.0939V3.26468ZM34.4849 1.84991H6.20668C5.67866 0.756245 4.5584 3.05176e-05 3.26483 3.05176e-05C1.46463 3.05176e-05 0 1.46457 0 3.26468L8.98438e-05 42.7121C0 42.7198 0 42.7275 0 42.7353H8.98438e-05C8.98438e-05 44.5354 1.46463 45.9999 3.26483 45.9999H29.5747C30.7984 45.9999 31.794 45.0043 31.794 43.7805V42.6604H34.4849C35.7087 42.6604 36.7041 41.6647 36.7041 40.4409V35.7156V34.4138V4.06932C36.7041 2.84556 35.7085 1.84991 34.4849 1.84991V1.84991Z" fill="#141ED2"/>
<path fill-rule="evenodd" clip-rule="evenodd" d="M30.7604 14.8813H10.7129V7.33213H16.6886C16.6892 7.33213 16.6898 7.33204 16.6903 7.33204H30.7604V14.8813ZM30.8706 5.98402H16.246C16.2453 5.98402 16.2447 5.98411 16.2441 5.98411H10.6028C9.92016 5.98411 9.36475 6.53944 9.36475 7.22207V14.9918C9.36475 15.6744 9.92016 16.2296 10.6028 16.2296H30.8706C31.5531 16.2296 32.1085 15.6743 32.1085 14.9918V7.22198C32.1085 6.53935 31.5531 5.98402 30.8706 5.98402V5.98402Z" fill="#141ED2"/>
<path fill-rule="evenodd" clip-rule="evenodd" d="M10.713 36.604H17.0297V33.4876H10.713V36.604ZM17.1399 32.1395H10.6028C9.92019 32.1395 9.36487 32.6949 9.36487 33.3774V36.7142C9.36487 37.3968 9.92019 37.9521 10.6028 37.9521H17.1399C17.8225 37.9521 18.3778 37.3967 18.3778 36.7142V33.3774C18.3778 32.6948 17.8225 32.1395 17.1399 32.1395V32.1395Z" fill="#141ED2"/>
</svg>
