<?xml version="1.0" encoding="UTF-8"?>
<svg width="39px" height="46px" viewBox="0 0 39 46" version="1.1" xmlns="http://www.w3.org/2000/svg" xmlns:xlink="http://www.w3.org/1999/xlink">
    <!-- Generator: Sketch 63.1 (92452) - https://sketch.com -->
    <title>ion-ios-play - Ionicons</title>
    <desc>Created with Sketch.</desc>
    <g id="06.-Tips" stroke="none" stroke-width="1" fill="none" fill-rule="evenodd">
        <g id="#PC---Blog-/-Tips" transform="translate(-407.000000, -2725.000000)" fill="#FFFFFF">
            <g id="Bitmap" transform="translate(150.000000, 2592.000000)">
                <path d="M263.105418,133.779545 L293.505979,152.598939 C295.384333,153.76173 295.964412,156.227065 294.801621,158.105418 C294.475808,158.631732 294.032292,159.075248 293.505979,159.401061 L263.105418,178.220455 C261.227065,179.383246 258.76173,178.803167 257.598939,176.924813 C257.207414,176.292348 257,175.563239 257,174.819395 L257,137.180605 C257,134.971466 258.790861,133.180605 261,133.180605 C261.743844,133.180605 262.472954,133.388019 263.105418,133.779545 Z" id="ion-ios-play---Ionicons"></path>
            </g>
        </g>
    </g>
</svg>